<svg width="7200" height="900" viewBox="0 0 7200 900" fill="none" xmlns="http://www.w3.org/2000/svg">
<path d="M1093 472.5C1328 631.5 756.5 528 1093 382.5" stroke="black"/>
<path d="M2533 382C2801 205 2189.06 114.214 2060.5 255.5C1934 394.522 1980.1 829.9 2214.5 711.5C2448.9 593.1 2470.96 837.824 2578.5 744C2651.56 680.256 2742.03 564.011 2661.5 510" stroke="black"/>
<path d="M4101.5 510C3937.5 400 3716.4 480.4 3596 402C3445.5 304 3238 269 3189 325.5C3140 382 3273.5 535 3478.5 538.5C3683.5 542 3792.04 542.827 3903.5 410" stroke="black"/>
<path d="M5343.5 410C5408.83 332.14 5534.8 235.5 5438 167.5C5317 82.5 4235 254.5 4443 435.5C4651 616.5 4613.5 788.5 4929.5 693.5C5245.5 598.5 4995.5 551 5046.5 456C5097.5 361 5163.04 328.723 5246.5 355" stroke="black"/>
<path d="M6686.5 355C6764.23 379.471 6885.4 489.6 6797 532C6708.6 574.4 6508 493 6370 450" stroke="black"/>
</svg>
